{
    "midi-qol.ItemDeleteCheck.Name": "Verificação Exclusão de Item",
    "midi-qol.ItemDeleteCheck.Hint": "Abre uma caixa de diálogo de confirmação ao tentar excluir itens da planilha de personagem",
    "midi-qol.DamageImmunities.Name": "Aplicar imunidades a Dano",
    "midi-qol.DamageImmunities.Hint": "Ao usar botões de dano midi-qol ou aplicar dano automaticamente, aplique imunidades/vulnerabilidades/resistências a danos do alvo. Todos os tipos de dano são verificados.",
    "midi-qol.WorldKeyMappings.Name": "Configuração de Teclas de Mundo vs Cliente",
    "midi-qol.WorldKeyMappings.Blurb1": "Os mapeamentos de teclas são definidos por cliente. Cada jogador pode ter diferentes mapeamentos de teclas. Para forçar todos os clientes a terem os mesmos mapeamentos de teclas, use um dos módulos disponíveis para garantir configurações comuns.",
    "midi-qol.WorldKeyMappings.Blurb2": "Testei 'Forçar Controles de Cliente' com sucesso",
    "midi-qol.SpeedAbilityRolls.Name": "Habilitar Rolagens Rápidas de Atributo (salvaguarda/teste/perícia)",
    "midi-qol.ShowItemDetails.Name": "Mostrar detalhes do Item no cartão de bate-papo",
    "midi-qol.ShowItemDetails.Hint": "Se configurado, os detalhes do item serão exibidos no cartão de bate-papo. Você pode usar a configuração do sistema DND5E para ocultar automaticamente a descrição",
    "midi-qol.AutoRollAttack.Name": "Quando o item é rolado, role automaticamente o ataque se houver um",
    "midi-qol.AutoRollAttack.Hint": "Quando o ataque é rolado, as configurações de avanço rápido automático são usadas para decidir o que fazer",
    "midi-qol.AutoFastForward.Name": "Avanço rápido automático de rolagens",
    "midi-qol.AutoFastForward.Hint": "Ao rolar ataque ou dano, sempre avançe rápido as rolagens também se aplica ao clicar nos botões de ataque/dano",
    "midi-qol.AutoCheckHit.Name": "Verifica automaticamente se o ataque atinge o alvo",
    "midi-qol.AutoCheckHit.Hint": "Verifica se uma jogada de ataque atinge os alvos selecionados - o dano é rolado se um ou mais alvos forem atingidos e a a rolagem automática de dano estiver habilitada. Se desativado, o midi-qol assumirá que os ataques atigem e continuará rolando.",
    "midi-qol.RequiresTargets.Name": "Exigir que os alvos sejam selecionados",
    "midi-qol.RequiresTargets.Hint": "Requer que os tokens sejam selecionados antes das rolagens. Nunca significa nunca exigir que os alvos sejam definidos, Em Combate significa apenas em combate e Sempre quando um item com alvos é rolado. Não funciona com better rolls",
    "midi-qol.requiresTargetsOptions": {
        "none": "Nunca",
        "combat": "Em Combate",
        "always": "Sempre"
    },
    "midi-qol.AutoApplyDamage.Name": "Aplicar dano automaticamente ao alvo",
    "midi-qol.AutoApplyDamage.Hint": "Aplicar dano automaticamente a alvos atingidos (se com verificação automática de ataque) ou alvos que o usuário selecionou",
    "midi-qol.ItemRollButtons.Name": "Adicionar botões de ataque/dano à lista de inventário de itens",
    "midi-qol.ItemRollButtons.Hint": "Adicionar botões de rolagem à descrição do item - esses botões suportam ctrl/alt/shift para pular a caixa de diálogo",
    "midi-qol.AddChatDamageButtons.Name": "Adicionar botões de dano à mensagem de bate-papo",
    "midi-qol.AddChatDamageButtons.Hint": "Adicionar botões de dano a qualquer mensagem de bate-papo de rolagem de dano - clicar aplica o dano a todos os tokens selecionados (NÃO ALVO) (o mesmo que o menu suspenso)",
    "midi-qol.AddChatDamageButtonsOptions": {
        "none": "Nenhum",
        "gm": "Adicionar botões apenas para MJ",
        "pc": "Adicionar botões apenas para Jogadores",
        "both": "Adicionar botões para todos"
    },
    "midi-qol.AutoRollDamage.Name": "Rolar o Dano automáticamente",
    "midi-qol.AutoRollDamage.Hint": "Role automaticamente o Dano quando uma jogada de ataque é feita. Se a rolagem automática de dano estiver configurada para acertos de ataque, ele rolará o dano se nenhum alvo for selecionado, os acertos de ataque (veja verificação de acertos automática) ou acertos não estão sendo verificados",
    "midi-qol.AutoCheckSaves.Name": "Checar Salvaguardas Automaticamente",
    "midi-qol.AutoCheckSaves.Hint": "Verifique automaticamente as salvaguardas quando necessário. Se desativado, ele assumirá que todos os alvos falharam.",
    "midi-qol.DisplaySaveDC.Name": "Exibir CD da Salvaguarda",
    "midi-qol.DisplaySaveDC.Hint": "Se falso, esconda a CD da salvaguarda dos jogadores (apenas se mesclar cartão)",
    "midi-qol.AutoRemoveTargets.Name": "Limpar os alvos ao fim do turno",
    "midi-qol.AutoRemoveTargets.Hint": "No final do turno, escolha deselecionar alvos automaticamente",
    "midi-qol.buttons.roll": "Rolagem Padrão",
    "midi-qol.buttons.attack": "Ataque",
    "midi-qol.buttons.saveDC": "CD da Salvaguarda",
    "midi-qol.buttons.saveAndDamage": "Rolar (Salvaguarda & Dano)",
    "midi-qol.buttons.attackAndDamage": "Rolar (Ataque & Dano)",
    "midi-qol.buttons.damage": "Dano",
    "midi-qol.buttons.altDamage": "Dano Alternativo",
    "midi-qol.buttons.extraDamage": "Dano Extra",
    "midi-qol.buttons.versatileDamage": "Dano Versátil",
    "midi-qol.buttons.versatileAttack": "Ataque Versátil",
    "midi-qol.buttons.info": "Informações",
    "midi-qol.buttons.itemUse": "Usar",
    "midi-qol.reallyDelete": "Excluir realmente este item",
    "midi-qol.sure": "Você tem certeza?",
    "midi-qol.criticals": "Acerto crítico",
    "midi-qol.fumbles": "Errou feio",
    "midi-qol.hits": "Acertou",
    "midi-qol.hitsEC": " Acertou em cheio",
    "midi-qol.misses": "Errou",
    "midi-qol.save-success": " sucesso",
    "midi-qol.save-failure": " falha",
    "midi-qol.damage-applied": "Pontos de Vida Atualizados",
    "midi-qol.noItemNamed": "O token selecionado não tem um item chamado",
    "midi-qol.noTokens": "Não é possível aplicar efeito - nenhum token mirado",
    "midi-qol.HideNPCNames.Name": "Ocultar nomes de tokens",
    "midi-qol.HideNPCNames.Hint": "Ocultar nomes de tokens em mensagens de bate-papo de acerto/salvaguarda",
    "midi-qol.AutoTarget.Name": "Selecionar alvo automáticamente no desenho do gabarito",
    "midi-qol.AutoTarget.Hint": "Ao colocar um gabarito (por exemplo, magia), seleciona automaticamento tokens alvo dentro do gabarito.",
    "midi-qol._comment for translaters_noDamageonSaveSpells": "No foundry v9, o elemento array json não é mais suportado, portanto, apenas a versão v9 será usada",
    "midi-qol.noDamageonSaveSpells": [
        "Lightning Lure",
        "Assassino Fantasmagórico",
        "Bolha Ácida",
        "Catapulta",
        "Chama Sagrada",
        "Contato Extraplanar",
        "Cordão de Flechas",
        "Criar Fogueira",
        "Desintegrar",
        "Dobre a Finados",
        "Esplendor Doentio",
        "Explosão de Espadas",
        "Infestação",
        "Maelstrom",
        "Palavra de Radiância",
        "Queimadura de Gelo",
        "Rajada de Veneno",
        "Sonho",
        "Tempestade da Vingança",
        "Tentáculos Negros de Evard",
        "Tremor de Terra",
        "Trovão",
        "Zombaria Perversa"
    ],
    "midi-qol.noDamageonSaveSpellsv9": "Lightning Lure, Assassino Fantasmagórico, Bolha Ácida, Catapulta, Chama Sagrada, Contato Extraplanar, Cordão de Flechas, Criar Fogueira, Desintegrar, Dobre a Finados, Esplendor Doentio, Explosão de Espadas, Infestação, Maelstrom, Palavra de Radiância, Queimadura de Gelo, Rajada de Veneno, Sonho, Tempestade da Vingança, Tentáculos Negros de Evard, Tremor de Terra, Trovão, Zombaria Perversa",
    "midi-qol.fullDamageText": "Dano total na salvaguarda",
    "midi-qol._comment for translaters_fullDamage": "Ambas as linhas de texto abaixo são pesquisadas por midi na descrição do feitiço",
    "midi-qol.fullDamage": "dano total na salvaguarda",
    "midi-qol.fullDamageAlt": "dano total",
    "midi-qol.undoDamageFrom": "Desfazer dano aplicado de ",
    "midi-qol.noGM": "Nenhum usuário MJ conectado não pode aplicar efeitos/atualizar Pontos de Vida",
    "midi-qol.noSelection": "Nenhum Token/Ator selecionado",
    "midi-qol.showGM.Name": "MJ vê todas as mensagens sussurradas",
    "midi-qol.showGM.Hint": "O MJ vê todas as mensagens sussurradas enviadas, mesmo que as configurações do jogo indiquem que o MJ não as verá",
    "midi-qol.ColoredBorders.Name": "Mensagens de Borda Colorida",
    "midi-qol.ColoredBorders.Hint": "Cada mensagem de chat tem uma borda na cor dos personagens dos jogadores",
    "midi-qol.AutoEffects.Name": "Aplicar efeitos de item automaticamente a alvos",
    "midi-qol.AutoEffects.Hint": "Aplique automaticamente os efeitos ativos do item aos alvos se eles forem atingidos, falharem em uma salvaguarda ou falharem em um teste. Requer dynamiceffects e funciona melhor com about-time e/ou times-up também.",
    "midi-qol.RangeTarget.Name": "Alvo automático para ataque/magia à distância",
    "midi-qol.RangeTarget.Hint": "Alvo automático para ataque/magia à distância se o tipo de alvo for criatura/inimigo/aliado",
    "midi-qol.PlayerRollSaves.Name": "Solicitar aos jogadores Rolagem de Salvaguarda",
    "midi-qol.PlayerRollSaves.Hint": "Jogadores Rolam salvaguardas. Uma mensagem de bate-papo pode ser sussurrada ou pode usar LMRTFY se instalado.",
    "midi-qol.rollNPCSaves.Name": "Solicitar ao MJ para Rolar Salvaguardas (Desvinculado)",
    "midi-qol.rollNPCLinkedSaves.Name": "Solicitar ao MJ para Rolar Salvaguardas (Vinculado)",
    "midi-qol.rollNPCSaves.Hint": "Auto significa que o módulo fará a salvaguarda para o PNJ, caso contrário, o MJ receberá um aviso LMRTFY.",
    "midi-qol.PlayerSaveTimeout.Name": "Atraso antes de rolar para os jogadores",
    "midi-qol.PlayerSaveTimeout.Hint": "Quanto tempo esperar antes de assumir a salvaguarda do jogador para eles em segundos",
    "midi-qol.MagicResistant": "resistente a magia",
    "midi-qol.MagicResistanceFeat": "Resistência a Magia",
    "midi-qol._comment for translaters_halfDamage": "O texto abaixo é procurado por midi na descrição do feitiço",
    "midi-qol.halfDamage": "metade do dano",
    "midi-qol._comment for translaters_halfDamageAlt": "O texto abaixo é procurado por midi na descrição do feitiço",
    "midi-qol.halfDamageAlt": "metade do dano",
    "midi-qol._comment for translaters_noDamage": "Ambas as linhas de texto abaixo são pesquisadas por midi na descrição do feitiço",
    "midi-qol.noDamage": "nenhum dano na salvaguarda",
    "midi-qol.noDamageAlt": "nenhum dano na salvaguarda",
    "midi-qol.noDamageText": "Nenhum dano na salvaguarda",
    "midi-qol.PreRollChecks.Name": "Experimental: Aplique verificações antes de fazer a rolagem rápida/macro",
    "midi-qol.PreRollChecks.Hint": "Experimental: Verifica antes de fazer uma rolagem de item; atualmente à distancia e o rolador tem PV > 0",
    "midi-qol.noTargets": "Você deve selecionar um token alvo antes de rolar o ataque",
    "midi-qol.wrongNumberTargets": "Você deve selecionar no máximo {allowedTargets} token(s) alvo antes de rolar o ataque",
    "midi-qol.noSaveTargets": "Sem alvos para salvaguarda",
    "midi-qol.UseTokenNames.Name": "Cartões de bate-papo usam nome de token",
    "midi-qol.UseTokenNames.Hint": "Os títulos dos cartões de bate-papo e os nomes dos alvos usam o nome do token em vez do nome do ator",
    "midi-qol.CriticalDamage.Name": "Escolha como rolar o dano crítico",
    "midi-qol.CriticalDamage.Hint": "Requer foundry 0.7.0 ou posterior. Configurações DND5e apenas - rolagem de crítico padrão dnd5e, Danos Normais Máximos - dados da arma base apenas (sem dados críticos), mas todos maximizados, Dados Críticos Máximos - dados críticos maximizados, Máximo em Todos o Dados - arma + dados críticos maximizados, Duplicar Dano Rolado - resultado dos dados x2",
    "midi-qol.CriticalDamageChoices": {
        "default": "Configurações DND5e apenas",
        "maxDamage": "Danos Normais Máximos",
        "maxCrit": "Dados Críticos Máximos",
        "maxAll": "Máximo em Todos o Dados",
        "doubleDice": "Duplicar Dano Rolado",
        "baseDamage": "Sem Bônus"
    },
    "midi-qol.MergeCard.Name": "Mesclar Rolagens em um cartão",
    "midi-qol.MergeCard.Hint": "Mescle Ataque, Acertos, Danos, Salvaguardas em um único cartão de bate-papo",
    "midi-qol.MergeCardCondensed.Name": "Condensar Rolagens de Ataque/Dano",
    "midi-qol.MergeCardCondensed.Hint": "Economize um pouco de espaço no registro de bate-papo, tornando as jogadas de ataque e dano menores",
    "midi-qol.ConfigTitle": "Configuração Midi-Qol",
    "midi-qol.WorkflowSettings": "Configurações de Fluxo de Trabalho",
    "midi-qol.CheckSaveText.Name": "Pesquisar descrição do item",
    "midi-qol.CheckSaveText.Hint": "Pesquise a descrição do item para a salvaguarda - se a magia tiver 'metade do dano' causa 1/2 de dano na salvaguarda. Se desmarcado, assume que uma salvaguarda causa modificador de dano da salvaguarda padrão",
    "midi-qol.Save": "Salvar Configurações",
    "midi-qol.saving-throws": "Salvaguardas",
    "midi-qol.saving-throw": "Salvaguarda",
    "midi-qol.ability-check": "Teste de Atributo",
    "midi-qol.ability-checks": "Testes de Atributo",
    "midi-qol.noAttackRoll": "Você deve rolar o ataque antes de rolar o dano",
    "midi-qol.config": "Configuração Midi QoL",
    "midi-qol.Hint": "Defina as várias configurações de fluxo de trabalho para midi-qol. Esteja avisado que há muitas delas",
    "midi-qol.DiceSound.Name": "Jogada de Ataque",
    "midi-qol.AttackRoll": "Jogada de Ataque",
    "midi-qol.CriticalSoundName": "Acerto Crítico",
	  "midi-qol.FumbleSoundName": "Erro",
    "midi-qol.DiceSounds.Hint": "Som para reproduzir em diferentes tipos de rolagens. Aplica-se APENAS ao cartão combo",
    "midi-qol.CustomSoundsPlaylist.Name": "Lista de Reprodução",
    "midi-qol.WeaponUseSound.Name": "Uso de Arma",
    "midi-qol.WeaponUseSoundRanged.Name": " Uso de Arma (À Distância)",
    "midi-qol.SpellUseSound.Name": "Uso de Magia",
    "midi-qol.SpellUseSoundRanged.Name": " Uso de Magia (À Distância)",
    "midi-qol.PotionUseSound.Name": "Uso de Poção",
    "midi-qol.ItemUseSound.Name": "Uso de Item",
    "midi-qol.AutoFastForwardAbilityRolls.Name": "Avanço Rápido de Rolagens de Atributo",
    "midi-qol.AutoFastForwardAbilityRolls.Hint": "Clicar em um atributo para iniciar um teste/salvaguarda ou uma perícia irá avançar automaticamente",
    "midi-qol.UseCustomSounds.Name": "Habilitar sons personalizados do midi-qol",
    "midi-qol.UseCustomSounds.Hint": "Se definido, substituirá os sons do sistema. Configure sons do aplicativo 'Configurar Sons Personalizados Midi'",
    "midi-qol:Debug.Name": "Habilitar Depuração",
    "midi-qol:Debug.Hint": "'Avisos' dá uma visão geral da atividade, 'Depurar' adiciona mais informações e 'Todos' ativa CONFIG.debug.hooks também",
    "midi-qol.DebugOptions": {
        "none": "Nenhum",
        "warn": "Avisos",
        "debug": "Depurar",
        "all": "Todos"
    },
    "midi-qol.speedItemRollsOptions": {
        "off": "Desligado",
        "on": "Ligado",
        "onCard": "Ligado + Mostrar Cartão de Item"
    },
    "midi-qol.autoCheckHitOptions": {
        "none": "Nenhum",
        "all": "Verifica - Todos veem o resultado",
        "whisper": "Verifica - Apenas o MJ vê"
    },
    "midi-qol.clickOptions": {
        "off": "Desligado",
        "attack": "Apenas Jogadas de Ataque",
        "damage": "Apenas Jogadas de Dano",
        "all": "Ataque e Dano"
    },
    "midi-qol.autoTargetOptions": {
        "none": "Nenhum",
        "always": "Sempre",
        "alwaysIgnoreDefeated": "Sempre - Ignorar derrotado",
        "wallsBlock": "Bloqueio de Paredes",
        "wallsBlockIgnoreDefeated": "Bloqueio de Paredes - Ignorar derrotado",
        "dfqol": "Usar DF Template Enhancements"
    },
    "midi-qol.autoCheckSavesOptions": {
        "none": "Desligado",
        "allNoRoll": "Salvaguarda - Todos veem somente o resultado",
        "all": "Salvaguarda - Todos veem o resultado + salvaguarda",
        "whisper": "Salvaguarda - Apenas o MJ vê",
        "allShow": "Salvaguarda - Todos veem o resultado + Rolagens"
    },
    "midi-qol.rangeTargetOptions": {
        "none": "Nenhum",
        "always": "Sempre",
        "alwaysIgnoreDefeated": "Sempre - Ignorar derrotado",
        "wallsBlock": "Bloqueio de Paredes",
        "wallsBlockIgnoreDefeated": "Bloqueio de Paredes - Ignorar derrotado"
    },
    "midi-qol.autoRollDamageOptions": {
        "none": "Nunca",
        "always": "Sempre",
        "onHit": "Rolagem de Dano Necessária"
    },
    "midi-qol.autoApplyDamageOptions": {
        "none": "Não",
        "noCard": "Não + Cartão de dano",
        "yes": "Sim",
        "yesCard": "Sim + Cartão de dano",
        "yesCardNPC": "Sim(PNJ) Não(PJ) + cartão de dano"
    },
    "midi-qol.removeButtonsOptions": {
        "off": "Desligado",
        "attack": "Somente Ataque",
        "damage": "Somente Dano",
        "all": "Ataque e Dano"
    },
    "midi-qol.damageImmunitiesOptions": {
        "none": "Nunca",
        "immunityDefault": "Aplicar imunidades",
        "immunityPhysical": "Aplicar imunidades + físico"
    },
    "midi-qol.showItemDetailsOptions": {
        "none": "Nenhum",
        "cardOnly": "Somente Cartão",
        "pc": "Detalhes: Somente PJ",
        "all": "Detalhes: PNJ + PJ"
    },
    "midi-qol.rollNPCSavesOptions": {
        "none": "Mensagem de Bate-papo",
        "auto": "Auto",
        "letme": "Let Me Roll That For You",
        "letmeQuery": "LMRTFY + Solicitação",
        "mtb": "Monks Token Bar"
    },
    "midi-qol.playerRollSavesOptions": {
        "none": "Nenhum",
        "letme": "Let Me Roll That For You",
        "letmeQuery": "LMRTFY + Solicitação",
        "chat": "Mensagem de Bate-papo",
        "mtb": "Monks Token Bar"
    },
    "midi-qol.playerRollSavesOptionsReduced": {
        "none": "Nenhum",
        "letme": "Let Me Roll That For You",
        "chat": "Mensagem de Bate-papo"
    },
    "midi-qol.AutoRemoveTargetsOptions": {
        "none": "Nunca",
        "dead": "Deselecionar mortos após rolar",
        "allGM": "Deselecionar mortos e todos do MJ",
        "all": "Deselecionar todos no final do turno"
    },
    "midi-qol.ColoredBordersOptions": {
        "none": "Nenhum",
        "borders": "Somente Bordas",
        "borderNamesText": "Borda + Texto do Nome",
        "borderNamesBackground": "Borda + Fundo do Nome"
    },
    "midi-qol.hideRollDetailsOptions": {
        "none": "Nenhum",
        "detailsDSN": "Fórmula de Rolagem, mas mostre a rolagem DSN",
        "details": "Fórmula de Rolagem",
        "d20Only": "Mostrar ataque D20 + Dano total",
        "hitDamage": "Mostrar Acerto/Erro + Dano total",
        "d20AttackOnly": "Mostrar somente ataque D20",
        "all": "Rolagem Inteira"
    },
    "midi-qol.RollOtherDamageOptions": {
        "none": "Desligado",
        "ifSave": "Se Salvaguarda presente",
        "activation": "Condição de Ativação"
    },
    "midi-qol.potion": "Poção",
    "midi-qol.HideRollDetails.Name": "Ocultar detalhes da Rolagem do MJ",
    "midi-qol.HideRollDetails.Hint": "Escolha o quanto das rolagens do MJ ocultar/mostrar aos jogadores",
    "midi-qol.HideRollDetails.HintLong": {
        "none": "Nenhum: não esconda nada",
        "detailsDSN": "Fórmula de Rolagem mas mostre DSN: oculte as fórmulas de rolagem, mas ainda role os dados DSN",
        "details": "Fórmula de Rolagem: esconda a fórmula de rolagem e não mostre os dados DSN",
        "d20Only": "Mostrar Ataque d20 + dano total: Mostrar apenas a jogada de ataque d20 e o dano total",
        "hitDamage": "Mostrar Acerto/Erro + dano total: Mostra o acerto/erro mais o dano total",
        "d20attackOnly": "Mostrar apenas o ataque D20: Mostrar apenas os dados de ataque d20",
        "all": "Roalgem Inteira: oculta todos os detalhes da rolagem aos jogadores"
    },
    "midi-qol.DiceRolled": "<div>Rolado</div>",
    "midi-qol.ForceHideRoll.Name": "Realmente Ocultar rolagens privadas/cegas/pessoais",
    "midi-qol.ForceHideRoll.Hint": "Não exibir nada para não destinatários das rolagens privadas/cegas/pessoais. Agradecimentos a felix.mueller.86@web.de",
    "midi-qol.EnableWorkflow.Name": "Habilitar suporte de automação de rolagem",
    "midi-qol.EnableWorkflow.Hint": "Se ativada, a automação de rolagens pode ser configurada no painel Configurações de Fluxo de Trabalho",
    "midi-qol.magicalProp": "Mágica",
    "midi-qol.noDamageSaveProp": "Sem Dano Salv",
    "midi-qol.fullDamageSaveProp": "Todo Dano Salv",
    "midi-qol.defaultDamageType": "Nenhuma",
    "midi-qol.halfDamageSaveProp": "Met. Dano Salv",
    "midi-qol.rollOtherProp": "Rolar Outra Fórm.",
    "midi-qol.otherCritProp": "Outra Rol. Crít.",
    "midi-qol.playerControlsInvisibleTokens.Name": "Os jogadores controlam os próprios tokens ocultos",
    "midi-qol.playerControlsInvisibleTokens.Hint": "Experimental - pode funcionar",
    "midi-qol.Debug.Name": "Habilitar depuração",
    "midi-qol.Debug.Hint": "Defina como Nenhum, a menos que você queira encher o log do console. Tudo ativa CONFIG.hooks.debug",
    "midi-qol.AllowUseMacro.Name": "Adicionar macro para chamar ao usar",
    "midi-qol.AllowUseMacro.Hint": "Quando ativado, adiciona um campo de nome de macro que será chamado ao usar. Veja o Leiame para os detalhes",
    "midi-qol.onUseMacroLabel": " Ao Usar Macros",
    "midi-qol.onUseMacroOptions": {
        "preItemRoll": "Chamado antes do item ser rolado (*)",
        "templatePlaced": "Chamado apenas quando um gabarito é colocado",
        "preambleComplete": "Após a seleção de alvo de  concluída",
        "preAttackRoll": "Antes da Jogada de Ataque",
        "preCheckHits": "Antes de Verificar Acertos",
        "postAttackRoll": "Depois da Jogada de Ataque",
        "preDamageRoll": "Antes da Rolagem de Dano",
        "postDamageRoll": "Depois da Rolagem de Dano",
        "preSave": "Antes de Verificar Salvaguarda",
        "postSave": "Depois de Verificar Salvaguarda",
        "preDamageApplication": "Antes da Aplicação de Dano",
        "preActiveEffects": "Antes dos Efeitos da Jogada de Ataque ActiveBefore",
        "postActiveEffects": "Depois dos Efeitos Ativos ",
        "all": "Tudo"
    },
    "midi-qol.DragDropTarget.Name": "Arrastar e Soltar Alvo",
    "midi-qol.DragDropTarget.Hint": "Permitir arrastar um item para um token para atacá-lo",
    "midi-qol.AutoAttack.Name": "Jogada de ataque automática",
    "midi-qol.AutoDamage.Name": "Jogada de dano automática",
    "midi-qol.AutoFastForwardAttack.Name": "Avanço rápido de ataque automático",
    "midi-qol.AutoFastForwardDamage.Name": "Avanço rápido de dano automático",
    "midi-qol.midi-none": "Nemhum Dano",
    "midi-qol.ItemList": "Escolha os itens que exibem detalhes no cartão do item",
    "midi-qol.DisplayItems": "Mostrar Detalhes",
    "midi-qol.fastForward": "(rápido)",
    "midi-qol.RollOtherDamage.Name": "Rolar Outra fórmula de dano para rwak/mwak",
    "midi-qol.RollOtherSpellDamage.Name": "Rolar Outra fórmula de dano para magia",
    "midi-qol.RollOtherDamage.Hint": "Desligado = Não rola Outro dano automaticamente. se Salvaguarda = apenas rola o Outro dano se o item tiver uma salvaguarda. Ativação = rolar o Outro dano se a condição de ativação estiver vazia ou for avaliada como verdadeira",
    "midi-qol.ApplyEffects": "Aplicar Efeitos Ativos",
    "midi-qol.spell-damage": "Dano de Magia",
    "midi-qol.RemoveButtons.Name": "Remova os botões do cartão de bate-papo após a rolagem",
    "midi-qol.ActiveConcentrationSpell.Title": "Ativar Concentração de Magia",
    "midi-qol.ActiveConcentrationSpell.ContentNamed": "<p>Você já está se concentrando em <em>@NAME@</em>. Encerrar a concentração e continuar?</p>",
    "midi-qol.ActiveConcentrationSpell.ContentGeneric": "<p>Você já está se concentrando. Encerrar a concentração e continuar?</p>",
    "midi-qol.ConcentrationAutomation.Name": "Habilitar Automação de Concentração",
    "midi-qol.ConcentrationAutomation.Hint": "Se ativado, irá lidar com o gerenciamento de concentração via midi-qol, requer que a verificação automática salvaguarda seja ativada. Irá desativar o gerenciamento de concentração do CUB",
    "midi-qol.SingleConcentrationRoll.Name": "Teste de Concentração Único",
    "midi-qol.SingleConcentrationRoll.Hint": "Se ativado e o ataque está rolando dano normal + uma salvaguarda + dano outro/versátil, rola apenas uma único teste de concentração para o dano combinado",
    "midi-qol.GMSettings": "MJ",
    "midi-qol.PlayerSettings": "Jogador",
    "midi-qol.SoundSettings.Tab": "Sons",
    "midi-qol.Workflow": "Fluxo de Trabalho",
    "midi-qol.Misc": "Diversos",
    "midi-qol.Targeting": "Alvo",
    "midi-qol.Special": "Especiais",
    "midi-qol.Hits": "Acertos",
    "midi-qol.Misses": "Erros",
    "midi-qol.Saves": "Salvaguardas",
    "midi-qol.Damage": "Dano",
    "midi-qol.Concentrating": "Concentrando",
    "midi-qol.concentrationCheckName": "Concentração",
    "midi-qol.DamageMacro.Name": "Macros de Bônus de Dano",
    "midi-qol.concentrationActivationCondition": "Concentração",
    "midi-qol.DamageMacro.Hint": "Lista separada por vírgulas de macros para chamar ao calcular o dano que será aplicado aos alvos",
    "midi-qol.AttackMacro.Name": "Macros de Bônus de Ataque",
    "midi-qol.AttackMacro.Hint": "Lista separada por vírgulas de macros para chamar ao calcular a jogada de ataque que será aplicada ao verificar se o ataque atingiu os alvos",
    "midi-qol.DAEMidiQOL": "Específico DAE/Midi-QOL",
    "midi-qol.Optional": "Opcional",
    "midi-qol.OptionalRules.Name": "(EXPERIMENTAL) Regras de Jogo Opcionais funcionam com better rolls, mas aciona um aviso libWrapper",
    "midi-qol.OptionalRules.Hint": "Regras do jogo DND5E que você deseja ativar. Geralmente não funciona com better rolls.",
    "midi-qol.InvisAdvantage.Name": "Atacantes ocultos/invisíveis têm vantagem nos ataques (requer CUB ou CV)",
    "midi-qol.CheckRange.Name": "Verifique o alcance da arma ao atacar",
    "midi-qol.NearbyFoe.Name": "Ataques à distância quando um inimigo está mais perto do que isso têm desvantagem. 0 desativa",
    "midi-qol.WallsBlockRange.Name": "Paredes bloqueiam ataques à distância",
    "midi-qol.WallsBlockRange.Hint": "Paredes bloqueiam ataques à distância (verificações de 4 pontos exigem módulo Dnd5e Helpers)\n Não = nenhum efeito, Linha de Centro = verificar linha de centro, Centro + Levels = verificar linha de centro, mas use o `módulo levels` para determinar o bloqueio da parede, verificação de 4 pontos bloqueada se nenhum canto visível, verificação de 4 pontos ajusta CA de acordo com a cobertura",
    "midi-qol.WallsBlockRangeOptionsNew": {
        "none": "Não",
        "center": "Linha de Centro",
        "centerLevels": "Centro + Levels",
        "dnd5eHelpers": "dnd5e helpers",
        "dnd5eHelpersAC": "dnd5e helpers + CA"
    },
    "midi-qol.NearbyAllyRanged.Name": "(Regra da Casa) Ataques à distância em inimigos próximos a aliados têm desvantagem.",
    "midi-qol.WallsBlockRangeOptions": {
        "none": "Não",
        "center": "Linha de Centro",
        "centerLevels": "Centro + Levels"
    },
    "midi-qol.NearbyAllyRanged.Hint": "Ataques à distância com aliados próximos (5 pés) do alvo têm desvantagem para alvos menores do que isso (w*h). 0 desativa",
    "midi-qol.Incapacitated.Name": "Atores incapacitados não podem realizar ações ou reações",
    "midi-qol.RemoveHiddenInvis.Name": "O ataque remove oculto/invisível (requer Conditional Visibility ou CUB)",
    "midi-qol.CriticalSaves.Name": "(Regra da casa) Crítico/Erro sempre tem sucesso/falha nas salvaguardas",
    "midi-qol.MaxDRValue.Name": "(Regra da casa) Habilitar isso significa que apenas a redução de dano mais eficaz será aplicada. Desligado significa que RD acumula",
    "midi-qol.invisible": "Invisível",
    "midi-qol.hidden": "Oculto",
    "midi-qol.DamageCardMultHeader": "Mult",
    "midi-qol.DamageCardUndoHeader": "Desf",
    "midi-qol.DamageCardApplyHeader": "Aplic",
    "midi-qol.DamageCardCalc": "Calc",
    "midi-qol.DamageCardHeal": "Cura",
    "midi-qol.DamageCardAll": "Tudo",
    "midi-qol.StatsTitle": "Estatísticas de Rolagem",
    "midi-qol.RollStats": "Estatísticas",
    "midi-qol.RollStatsConfig": "Configuração de Estatísticas",
    "midi-qol.RemoveStats": "Remover Todas as Estatísticas de",
    "midi-qol.ClearStats": "Limpar Todas as Estatísticas",
    "midi-qol.EndSession": "Limpar Estatísticas da Sessão",
    "midi-qol.KeepRollStats.Name": "Manter Estatísticas de Rolagem",
    "midi-qol.KeepRollStats.Hint": "Registre jogada de ataque e dano para os atores",
    "midi-qol.SaveStatsEvery.Name": "Salvar Estatísticas a Cada",
    "midi-qol.SaveStatsEvery.Hint": "Salve estatísticas a cada N roalgens. Cada ataque e dano contam como uam rolagem. Sugerido 10-20 ou superior",
    "midi-qol.PlayerStatsOnly.Name": "Estatísticas do jogador apenas",
    "midi-qol.PlayerStatsOnly.Hint": "Manter estatísticas apenas para atores pertencentes ao jogador",
    "midi-qol.ShowStats": "Mostrar Janela de Estatísticas",
    "midi-qol.DefaultSaveMult.Name": "Multiplicador de salvaguarda padrão",
    "midi-qol.DefaultSaveMult.Hint": "Se não houver outros modificadores, uma salvaguarda causará esta fração do dano do ataque original. Padrão 0,5, metade do dano na salvaguarda. Você só deve alterar isso se souber como funcionam os multiplicadores",
    "midi-qol.RequireMagical.Name": "Requer propriedade 'Mágica'",
    "midi-qol.RequireMagical.Hint": "Se habilitado, apenas armas com a propriedade 'Mágica' definida causam danos mágicos",
    "midi-qol.RemoveConcentration.Name": "Remover concentração na falha da salvaguarda",
    "midi-qol.RemoveConcentration.Hint": "Se ativada, a concentração será removida em uma falha na salvaguarda quando sofrer dano, caso contrário, deve ser removida manualmente",
    "midi-qol.UsePlayerPortrait.Name": "Use o retrato do Ator em cartões de bate-papo",
    "midi-qol.UsePlayerPortrait.Hint": "Para Atores do tipo personagem, usa o retrato do ator em vez da imagem simbólica nos cartões de bate-papo midi-qol",
    "midi-qol.DistanceIncludesHeight.Name": "Incluir diferença de altura em cálculos de distância",
    "midi-qol.NoSocketLib": "Midi-qol requer socketlib instalado e habilitado",
    "midi-qol.NoCubInstalled": "Você habilitou a automação da concentração midi-qol. Isso requer que você instale e ative o Combat Utility Belt também. A automação da concentração será desativada.",
    "midi-qol.confirm": "Diálogo de Confirmação",
    "midi-qol.ExportConfig": "Exportar configurações de midi-qol para arquivo json",
    "midi-qol.ImportConfig": "Importar configurações midi-qol do arquivo json",
    "midi-qol.flags.midi-qol.bardicInspiration": "Inspiração de Bardo",
    "midi-qol.ExportJSon": "Exportar Estatíticas de Rolagem para arquivo Json",
    "midi-qol.ExportCSV": "Exportar Estatíticas de Rolagem para arquivo CSV",
    "midi-qol.AutoCEEffectsOptions": {
        "none": "Não aplique",
        "itempri": "Aplicar efeitos de item, se ausente, aplicar CE",
        "cepri": "Aplicar CE, se ausente aplicar efeitos de item",
        "both": "Aplicar CE e feitos de item"
    },
    "midi-qol.AutoCEEffects.Name": "Aplicar Efeitos Convenientes",
    "midi-qol.AutoCEEffects.Hint": "Aplique efeitos convenientes que correspondem ao nome do item quando o item é usado. Requer aplicar efeitos ativos automáticamente habilitado também.",
    "midi-qol.BonusACCover": "Cobertura CA",
    "midi-qol.NoChangelogs": "Midi-qol apóia e recomenda os módulos ChangeLogs ou Module Manager+ para mostrar qualquer mudança desde a última atualização",
    "midi-qol.ActiveDefenceString": "Defesa Ativa",
    "midi-qol.ActiveDefence.Name": "Defesa Ativa",
    "midi-qol.ActiveDefence.Hint": "Em vez de jogadas de 'Para Acertar' do MJ, os jogadores fazem uma jogada de defesa. Requer LMRTFY e não funciona com better rolls",
    "midi-qol.PromptDamageRoll.Name": "Diálogo de Rolagem de Dano Aprimorada",
    "midi-qol.PromptDamageRoll.Hint": "Ao usar a caixa de diálogo Rolagem de Dano, exiba uma caixa de diálogo aprimorada que oferece suporte a escolha do dano do item.",
    "midi-qol.GMHide3dDice.Name": "Ocultar a roladem de dados 3d de ataque/dano/salvaguarda do MJ - sobrescreve outras configurações (somente cartão mesclado)",
    "midi-qol.GhostRolls.Name": "Para jogadas de ataque/dano, exiba 'jogadas fantasma do dice so nice' em vez de ocultar a jogada (somente cartão mesclado)",
    "midi-qol.convenientEffectsOn": "Aplicar Efeito Conveniente",
    "midi-qol.convenientEffectsOff": "Mão Aplicar Efeito Conveniente",
    "midi-qol.ConsumeResource.Name": "Pular a caixa de diálogo de consumo de recurso",
    "midi-qol.ConsumeResource.Hint": "Se definido, pula a caixa de diálogo de consumo de recurso (consumindo um recurso padrão/espaço de magia e coloca o gabarito), a menos que nenhum espaço de magia do nível correto esteja disponível ou as teclas Vantagem + Desvantagem sejam pressionadas ao clicar",
    "midi-qol.ChallengeModeArmor.Name": "Habilitar Modo Desafio de Classe de Armadura",
    "midi-qol.ChallengeModeArmorScale.Name": "Habilitar a versão da casa do Modo Desafio de Classe de Armadura",
    "midi-qol.ChallengeModeArmor.Hint": "Implementa as regras de armadura do modo de desafio - consulte o leia-me para obter mais informações",
    "midi-qol.ChallengeModeArmorScale.Hint": "Requer Modo Desafio de Classe de Armadura habilitado. Implementa regras de armadura de modo de desafio modificadas - consulte o leia-me para obter mais informações",
    "midi-qol.nonSilverPhysical": "Físico Sem Prata",
    "midi-qol.nonAdamantinePhysical": "Físico Sem Adamantina",
    "midi-qol.EffectActivation": "A Condição de Ativação é necessária para a ativação do efeito",
    "midi-qol.HPUpdated": "PV Atualizados",
    "midi-qol.HPNPCUpdated": "PV PNJ Atualizados",
    "midi-qol.HPNotUpdated": "PV Não Atualizados",
    "midi-qol.reactionDamaged": "Sofrer Dano",
    "midi-qol.reactionManual": "Manual",
    "midi-qol.ddbGL.Name": "Habilitar suporte ddb-game-log",
    "midi-qol.ddbGL.Hint": "Aceitar ataques/danos/salvaguardas do ddb-game-log para acionar fluxos de trabalho midi no foundry",
    "midi-qol.ShowReactionChatMessage.Name": "Mostrar aviso de bate-papo para reações",
    "midi-qol.reactionFlavorAttack": "{actorName} é atingido por {itemName} e pode usar uma reação",
    "midi-qol.reactionFlavorDamage": "{actorName} sofre dano por {itemName} e pode usar uma reação",
    "midi-qol.AccelKeysOverride.Name": "Teclas de atalho Midi-qol substituem outras",
    "midi-qol.AccelKeysOverride.Hint": "Se configurado, o midi sempre usará os mapeamentos de teclas de atalho para vant/desvant, em vez de utilizar as do better rolls (por exemplo)",
    "midi-qol.NoWorkflow": "Nenhum fluxo de trabalho para o item {itemName}",
    "midi-qol._comment for translaters_DeferText": "O texto abaixo é procurado por midi no campo onUseMacro nos dados do item. Se você alterá-lo, todos os itens com um onUseMacro precisarão ser alterados para corresponder",
    "midi-qol.DeferText": "[Defer]",
    "midi-qol._comment for translaters_ItemMacroText": "O texto abaixo é procurado por midi no campo onUseMacro nos dados do item. Se você alterá-lo, todos os itens com um onUseMacro precisarão ser alterados para corresponder",
    "midi-qol.ItemMacroText": "ItemMacro",
    "midi-qol.LateTargeting.Name": "Mira Tardia",
    "midi-qol.LateTargeting.Hint": "Ao rolar com jogada de ataque automática configurado, os itens em que o alvo não são AoE, à distância ou você irão pausar e aguardar os alvos serem selecionados. Sai do modo de seleção de alvo nos controles HUD",
    "midi-qol.LateTargeting.Blurb": "Selecione {targetCount} alvos",
    "midi-qol.AddDead.Name": "Quando PV = 0: PNJ Adiciona Derrotado, PJ Adiciona Efeito Conveniente Inconsciente",
    "midi-qol.Wounded": "Ferido",
    "midi-qol.AddWounded.Name": "Marcar Ferido quando os PV cairem abaixo de %",
    "midi-qol.AddWounded.Hint": "Adicione o efeito conveniente personalizado 'Ferido' quando os PV forem menores que a porcentagem especificada do máx. 0 desativa.",
    "midi-qol.debugCallTiming.Name": "Registro de Tempo de Execução",
    "midi-qol.debugCallTiming.Hint": "Fornece algum registro de informações sobre quanto tempo as coisas demoram",
    "midi-qol.autoFailFriendly": "falha automática aliado",
    "midi-qol.RollToggle.Hint": "Alterne a configuração de rolagem rápida/automática para Verificações de ataque/dano/atributo",
    "midi-qol.RollToggle.Name": "Alternar Rolar",
    "midi-qol.KeysAdvantage.Hint": "Rolar com vantagem",
    "midi-qol.KeysDisadvantage.Hint": " Role com desvantagem",
    "midi-qol.KeysCritical.Hint": "Role o dano crítico (somente do cartão de bate-papo)",
    "midi-qol.KeysVersatile.Hint": "Rolar Dano Versátil",
    "midi-qol.KeysOther.Hint": "Role Dano de Outra fórmula",
    "midi-qol.FixStickyKeys.Name": "Corrigir adv/ctrl/shift travado",
    "midi-qol.FixStickyKeys.Hint": "Se definido, o midi tentará resolver adv/ctrl/shift travado 'ligado'",
    "midi-qol.DisplaySaveAdvantage.Name": "Exibir se a salvaguarda tem Vantagem/Desvantagem",
    "midi-qol.QuickSettings": "Configurações Rápidas",
    "midi-qol.QuickSettingsBlurb": {
        "1": "As configurações rápidas permitem definir uma combinação de configurações de uma só vez.",
        "2": "Quando um dos botões abaixo é pressionado, as alterações são feitas imediatamente nas suas configurações",
        "3": "Uma lista de alterações é exibida assim que o aplicação for concluído",
        "4": "Aceitam-se sugestões para melhorias"
    },
    "midi-qol.Reaction.Title": "Processamento de Reação",
    "midi-qol.GMDoReactionsOptions": {
        "all": "Ligado",
        "allMI": "Ligado + Itens Mágicos",
        "none": "Desligado"
    },
    "midi-qol.DoReactionsOptions": {
        "all": "Ligado",
        "allMI": "Ligado + Itens Mágicos",
        "none": "Desligado"
    },
    "midi-qol.ShowReactionAttackRoll.Name": "Mostrar jogada de ataque",
    "midi-qol.ShowReactionAttackRollOptions": {
        "none": "Ataque Acerta",
        "d20": "Somente rolagem do d20",
        "all": "Rolagem de Ataque Total"
    },
    "midi-qol.Reactions": "Solicitar Rreações",
    "midi-qol.DoReactions.Name": "Verifique as reações dos JOGADORES",
    "midi-qol.DoReactions.Hint": "Dê a um ator atacado a opção de usar uma reação antes de julgar o teste. As reações quando acertado exigem que as ocorrências de verificação automática estejam habilitadas. Reações de dano se aplicar dano",
    "midi-qol.GMDoReactions.Name": "Verifique as reações dos PNJ/MJ",
    "midi-qol.ReactionTimeout.Name": "Tempo limite de verificação de reação",
    "midi-qol.ReactionTimeout.Hint": "Quanto tempo esperar antes de assumir que nenhuma reação foi realizada",
    "midi-qol.NoOptionalRules.Name": "No optional rules",
    "midi-qol.NoOptionalRules.Hint": "Disable optional rules for this roll",
    "midi-qol.RecordAOO.Name": "Registre Ataques de Oportunidade",
    "midi-qol.RecordAOO.Hint": "Quando um ator faz um ataque e não é sua vez no rastreador de combate - marque sua reação usada",
    "midi-qol.RecordAOOOptions": {
        "none": "Não verifique",
        "character": "Somente personajens",
        "all": "Todos os atores"
    },
    "midi-qol.EnforceReactions.Name": "Impor Reações",
    "midi-qol.EnforceReactions.Hint": "Avisar ao usar itens de reação se a reação já foi usada nesta rodada",
    "midi-qol.EnforceBonusActions.Name": "Impor Ações Bônus",
    "midi-qol.EnforceBonusActions.Hint": "Avisar ao usar itens de ação bônus se a ação bônus já foi usada nesta rodada",
    "midi-qol.EnforceReactionsOptions": {
        "none": "Não verifique",
        "displayOnly": "Exibir ícone de status",
        "character": "Personajens: avisa se usado",
        "all": "Todos os atores: avisa se usado"
    },
    "midi-qol.EnforceReactions.Title": "Reação usada",
    "midi-qol.EnforceReactions.Content": "Você usou sua reação nesta rodada. Você quer continuar mesmo assim?",
    "midi-qol.DisplayHitResultNumeric.Name": "Exibe quanto um ataque acertou ou errou (por alvo)",
    "midi-qol.EnforceBonusActions.Title": "Ação de Bônus Usada",
    "midi-qol.EnforceBonusActions.Content": "Você usou sua ação bônus nesta rodada. Você quer continuar mesmo assim?",
    "midi-qol.MidiProperties": "Propriedades Midi-qol do Item",
    "midi-qol.SoundSettings.Name": "Configurar Sons Personalizados Midi",
    "midi-qol.SoundSettings.Hint": "Configure sons personalizados midi-qol para rolagens de itens",
    "midi-qol.SoundSettings.Label": "Configurar Sons Personalizados Midi",
    "midi-qol.SoundSettingsBlurb": {
      "1": "Começando...",
      "2": "Escolha 'Criar Lista de Reprodução de Exemplo, que criará uma lista de reprodução 'Sons de Item Midi' com alguns sons",
      "3": "Escolha 'Configurações Básicas' e altere",
      "4": "A outra configuração de criação adiciona mais detalhes/complexidade"
    },
    "midi-qol.AddRow": "Adicionar Linha",
    "midi-qol.CheckFlanking.Name": "Verificar Flanqueamento",
    "midi-qol.CheckFlanking.Hint": "Verifique se você e seus aliados flanqueiam o oponente",
    "midi-qol.RollAlternate.Name": "Mover fórmula de rolagem para dica de ferramenta",
    "midi-qol.RollAlternate.Hint": "Use a exibição de rolagem alternativa no cartão mescaldo, movendo a fórmula de rolagem para a dica de ferramenta",
    "midi-qol.OptionalCritRule.Name": "(Regra da casa) Margem de Rolagem Crítica",
    "midi-qol.OptionalCritRule.Hint": "Jogadas de Ataque muito acima da CA são críticas. -1 desativa",
    "midi-qol.Delete": "Excluir",
    "midi-qol.Cancel": "Cancelar"
}